{
  "compilerOptions": {
    "baseUrl": ".",
    // GENERATED:
    "paths": {
      "functools": ["./pyodide_mkdocs_theme/templates/js-libs/functools.js"],
      "jsLogger": ["./pyodide_mkdocs_theme/templates/js-libs/jsLogger.js"],
      "process_and_gui": ["./pyodide_mkdocs_theme/templates/js-libs/process_and_gui.js"],
      "0-generic-python-snippets-pyodide": ["./pyodide_mkdocs_theme/templates/js-per-pages/0-generic-python-snippets-pyodide.js"],
      "1-error_logs-pyodide": ["./pyodide_mkdocs_theme/templates/js-per-pages/1-error_logs-pyodide.js"],
      "1-packagesInstaller-install-pyodide": ["./pyodide_mkdocs_theme/templates/js-per-pages/1-packagesInstaller-install-pyodide.js"],
      "1-runtimeManager-runtime-pyodide": ["./pyodide_mkdocs_theme/templates/js-per-pages/1-runtimeManager-runtime-pyodide.js"],
      "2-pyodideSectionsRunner-runner-pyodide": ["./pyodide_mkdocs_theme/templates/js-per-pages/2-pyodideSectionsRunner-runner-pyodide.js"],
      "3-btnRunner-py_btn": ["./pyodide_mkdocs_theme/templates/js-per-pages/3-btnRunner-py_btn.js"],
      "3-terminalRunner-term": ["./pyodide_mkdocs_theme/templates/js-per-pages/3-terminalRunner-term.js"],
      "4-ideLogistic-ide": ["./pyodide_mkdocs_theme/templates/js-per-pages/4-ideLogistic-ide.js"],
      "4-ideRunner-ide": ["./pyodide_mkdocs_theme/templates/js-per-pages/4-ideRunner-ide.js"],
      "5-ideTester-ides_test": ["./pyodide_mkdocs_theme/templates/js-per-pages/5-ideTester-ides_test.js"],
      "qcms-qcm": ["./pyodide_mkdocs_theme/templates/js-per-pages/qcms-qcm.js"],
      "start-pyodide": ["./pyodide_mkdocs_theme/templates/js-per-pages/start-pyodide.js"],
      "overlord": ["./pyodide_mkdocs_theme/templates/js-scripts/overlord.js"],
      "subscriptions": ["./pyodide_mkdocs_theme/templates/js-scripts/subscriptions.js"]
    }
  }
}