{
  "$schema": "http://json-schema.org/draft-07/schema",
  "title": "pyodide_macros",
  "markdownDescription": "PMT's plugin configuration : `PyodideMacrosPlugin`.\n\n[https://frederic-zinelli.gitlab.io/pyodide-mkdocs-theme/custom/config/#pyodide_macros](https://frederic-zinelli.gitlab.io/pyodide-mkdocs-theme/custom/config/#pyodide_macros)",
  "oneOf": [
    {
      "const": "pyodide_macros"
    },
    {
      "type": "object",
      "properties": {
        "pyodide_macros": {
          "markdownDescription": "PMT's plugin configuration : `PyodideMacrosPlugin`.\n\n[https://frederic-zinelli.gitlab.io/pyodide-mkdocs-theme/custom/config/#pyodide_macros](https://frederic-zinelli.gitlab.io/pyodide-mkdocs-theme/custom/config/#pyodide_macros)",
          "title": "pyodide_macros",
          "type": "object",
          "properties": {
            "args": {
              "markdownDescription": "Configurations of default values for arguments used in `PyodideMacrosPlugin` macros.\n\n[https://frederic-zinelli.gitlab.io/pyodide-mkdocs-theme/custom/config/#pyodide_macros.args](https://frederic-zinelli.gitlab.io/pyodide-mkdocs-theme/custom/config/#pyodide_macros.args)",
              "title": "args",
              "type": "object",
              "properties": {
                "IDE": {
                  "markdownDescription": "Default values for arguments used in the `IDE` and `IDEv` macros.\n\n[https://frederic-zinelli.gitlab.io/pyodide-mkdocs-theme/redactors/IDE-details](https://frederic-zinelli.gitlab.io/pyodide-mkdocs-theme/redactors/IDE-details)",
                  "title": "IDE",
                  "type": "object",
                  "properties": {
                    "SANS": {
                      "markdownDescription": "Used to forbid the use of builtins, attribute accesses, packages or keywords in the python code (space or comma separated identifiers).\n\n[https://frederic-zinelli.gitlab.io/pyodide-mkdocs-theme/redactors/IDE-details/#IDE-SANS](https://frederic-zinelli.gitlab.io/pyodide-mkdocs-theme/redactors/IDE-details/#IDE-SANS)",
                      "title": "SANS",
                      "type": "string",
                      "default": "\"\""
                    },
                    "WHITE": {
                      "markdownDescription": "Names of packages to import automatically in the global scope (to avoid troubles with forbidden modules).\n\n[https://frederic-zinelli.gitlab.io/pyodide-mkdocs-theme/redactors/IDE-details/#IDE-WHITE](https://frederic-zinelli.gitlab.io/pyodide-mkdocs-theme/redactors/IDE-details/#IDE-WHITE)",
                      "title": "WHITE",
                      "type": "string",
                      "default": "\"\""
                    },
                    "REC_LIMIT": {
                      "markdownDescription": "Limit the recursion depth (do not use values below 20).\n\n[https://frederic-zinelli.gitlab.io/pyodide-mkdocs-theme/redactors/IDE-details/#IDE-REC_LIMIT](https://frederic-zinelli.gitlab.io/pyodide-mkdocs-theme/redactors/IDE-details/#IDE-REC_LIMIT)",
                      "title": "REC_LIMIT",
                      "type": "integer",
                      "default": "-1"
                    },
                    "MERMAID": {
                      "markdownDescription": "Mark a page as containing dynamic Mermaid graphs built during executions.\n\n[https://frederic-zinelli.gitlab.io/pyodide-mkdocs-theme/redactors/IDE-details/#IDE-MERMAID](https://frederic-zinelli.gitlab.io/pyodide-mkdocs-theme/redactors/IDE-details/#IDE-MERMAID)",
                      "title": "MERMAID",
                      "type": "boolean",
                      "default": "false"
                    },
                    "AUTO_RUN": {
                      "markdownDescription": "Run the python code on page load or not.\n\n[https://frederic-zinelli.gitlab.io/pyodide-mkdocs-theme/redactors/IDE-details/#IDE-AUTO_RUN](https://frederic-zinelli.gitlab.io/pyodide-mkdocs-theme/redactors/IDE-details/#IDE-AUTO_RUN)",
                      "title": "AUTO_RUN",
                      "type": "boolean",
                      "default": "false"
                    },
                    "MAX": {
                      "markdownDescription": "Maximum number of attempts before revealing correction and remarks.\n\n[https://frederic-zinelli.gitlab.io/pyodide-mkdocs-theme/redactors/IDE-details/#IDE-MAX](https://frederic-zinelli.gitlab.io/pyodide-mkdocs-theme/redactors/IDE-details/#IDE-MAX)",
                      "title": "MAX",
                      "type": "integer",
                      "default": "5"
                    },
                    "LOGS": {
                      "markdownDescription": "Build or not missing assertion messages for failed assertions in the secret tests\n\n[https://frederic-zinelli.gitlab.io/pyodide-mkdocs-theme/redactors/IDE-details/#IDE-LOGS](https://frederic-zinelli.gitlab.io/pyodide-mkdocs-theme/redactors/IDE-details/#IDE-LOGS)",
                      "title": "LOGS",
                      "type": "boolean",
                      "default": "true"
                    },
                    "MODE": {
                      "markdownDescription": "Change the execution  mode of an IDE (`'no_reveal'`, `'no_valid'`, by default: `null`).\n\n[https://frederic-zinelli.gitlab.io/pyodide-mkdocs-theme/redactors/IDE-details/#IDE-MODE](https://frederic-zinelli.gitlab.io/pyodide-mkdocs-theme/redactors/IDE-details/#IDE-MODE)",
                      "title": "MODE",
                      "enum": [
                        "delayed_reveal",
                        "no_reveal",
                        "no_valid",
                        "revealed"
                      ]
                    },
                    "MIN_SIZE": {
                      "markdownDescription": "Minimum number of lines of an editor.\n\n[https://frederic-zinelli.gitlab.io/pyodide-mkdocs-theme/redactors/IDE-details/#IDE-MIN_SIZE](https://frederic-zinelli.gitlab.io/pyodide-mkdocs-theme/redactors/IDE-details/#IDE-MIN_SIZE)",
                      "title": "MIN_SIZE",
                      "type": "integer",
                      "default": "3"
                    },
                    "MAX_SIZE": {
                      "markdownDescription": "Maximum number of lines of an editor.\n\n[https://frederic-zinelli.gitlab.io/pyodide-mkdocs-theme/redactors/IDE-details/#IDE-MAX_SIZE](https://frederic-zinelli.gitlab.io/pyodide-mkdocs-theme/redactors/IDE-details/#IDE-MAX_SIZE)",
                      "title": "MAX_SIZE",
                      "type": "integer",
                      "default": "30"
                    },
                    "TERM_H": {
                      "markdownDescription": "Initial number of lines of a terminal (approximative).\n\n[https://frederic-zinelli.gitlab.io/pyodide-mkdocs-theme/redactors/IDE-details/#IDE-TERM_H](https://frederic-zinelli.gitlab.io/pyodide-mkdocs-theme/redactors/IDE-details/#IDE-TERM_H)",
                      "title": "TERM_H",
                      "type": "integer",
                      "default": "10"
                    },
                    "TEST": {
                      "markdownDescription": "Configuration to use when testing this IDE (more options through macro call arguments)\n\n[https://frederic-zinelli.gitlab.io/pyodide-mkdocs-theme/redactors/IDE-details/#IDE-TEST](https://frederic-zinelli.gitlab.io/pyodide-mkdocs-theme/redactors/IDE-details/#IDE-TEST)",
                      "title": "TEST",
                      "enum": [
                        "",
                        "skip",
                        "fail",
                        "code",
                        "human",
                        "no_clear"
                      ],
                      "default": "\"\""
                    },
                    "TWO_COLS": {
                      "markdownDescription": "Automatically goes in split screen mode if `true`.\n\n[https://frederic-zinelli.gitlab.io/pyodide-mkdocs-theme/redactors/IDE-details/#IDE-TWO_COLS](https://frederic-zinelli.gitlab.io/pyodide-mkdocs-theme/redactors/IDE-details/#IDE-TWO_COLS)",
                      "title": "TWO_COLS",
                      "type": "boolean",
                      "default": "false"
                    },
                    "STD_KEY": {
                      "markdownDescription": "Key to pass as first argument of the `terminal_message` python function (in pyodide), to allow to print messages directly in the terminal of an IDE, when the stdout is deactivated.\n\n[https://frederic-zinelli.gitlab.io/pyodide-mkdocs-theme/redactors/IDE-details/#IDE-STD_KEY](https://frederic-zinelli.gitlab.io/pyodide-mkdocs-theme/redactors/IDE-details/#IDE-STD_KEY)",
                      "title": "STD_KEY",
                      "type": "string",
                      "default": "\"\""
                    },
                    "EXPORT": {
                      "markdownDescription": "Add the content of this editor to the zip archive, when extracting all the codes of the IDEs in the page.\n\n[https://frederic-zinelli.gitlab.io/pyodide-mkdocs-theme/redactors/IDE-details/#IDE-EXPORT](https://frederic-zinelli.gitlab.io/pyodide-mkdocs-theme/redactors/IDE-details/#IDE-EXPORT)",
                      "title": "EXPORT",
                      "type": "boolean",
                      "default": "false"
                    }
                  },
                  "additionalProperties": false
                },
                "terminal": {
                  "markdownDescription": "Default values for arguments used in the `terminal` macro.\n\n[https://frederic-zinelli.gitlab.io/pyodide-mkdocs-theme/redactors/terminaux/#signature](https://frederic-zinelli.gitlab.io/pyodide-mkdocs-theme/redactors/terminaux/#signature)",
                  "title": "terminal",
                  "type": "object",
                  "properties": {
                    "SANS": {
                      "markdownDescription": "Used to forbid the use of builtins, attribute accesses, packages or keywords in the python code (space or comma separated identifiers).\n\n[https://frederic-zinelli.gitlab.io/pyodide-mkdocs-theme/redactors/IDE-details/#IDE-SANS](https://frederic-zinelli.gitlab.io/pyodide-mkdocs-theme/redactors/IDE-details/#IDE-SANS)",
                      "title": "SANS",
                      "type": "string",
                      "default": "\"\""
                    },
                    "WHITE": {
                      "markdownDescription": "Names of packages to import automatically in the global scope (to avoid troubles with forbidden modules).\n\n[https://frederic-zinelli.gitlab.io/pyodide-mkdocs-theme/redactors/IDE-details/#IDE-WHITE](https://frederic-zinelli.gitlab.io/pyodide-mkdocs-theme/redactors/IDE-details/#IDE-WHITE)",
                      "title": "WHITE",
                      "type": "string",
                      "default": "\"\""
                    },
                    "REC_LIMIT": {
                      "markdownDescription": "Limit the recursion depth (do not use values below 20).\n\n[https://frederic-zinelli.gitlab.io/pyodide-mkdocs-theme/redactors/IDE-details/#IDE-REC_LIMIT](https://frederic-zinelli.gitlab.io/pyodide-mkdocs-theme/redactors/IDE-details/#IDE-REC_LIMIT)",
                      "title": "REC_LIMIT",
                      "type": "integer",
                      "default": "-1"
                    },
                    "MERMAID": {
                      "markdownDescription": "Mark a page as containing dynamic Mermaid graphs built during executions.\n\n[https://frederic-zinelli.gitlab.io/pyodide-mkdocs-theme/redactors/IDE-details/#IDE-MERMAID](https://frederic-zinelli.gitlab.io/pyodide-mkdocs-theme/redactors/IDE-details/#IDE-MERMAID)",
                      "title": "MERMAID",
                      "type": "boolean",
                      "default": "false"
                    },
                    "AUTO_RUN": {
                      "markdownDescription": "Run the python code on page load or not.\n\n[https://frederic-zinelli.gitlab.io/pyodide-mkdocs-theme/redactors/IDE-details/#IDE-AUTO_RUN](https://frederic-zinelli.gitlab.io/pyodide-mkdocs-theme/redactors/IDE-details/#IDE-AUTO_RUN)",
                      "title": "AUTO_RUN",
                      "type": "boolean",
                      "default": "false"
                    },
                    "TERM_H": {
                      "markdownDescription": "Initial number of lines of a terminal (approximative).\n\n[https://frederic-zinelli.gitlab.io/pyodide-mkdocs-theme/redactors/terminaux/#signature](https://frederic-zinelli.gitlab.io/pyodide-mkdocs-theme/redactors/terminaux/#signature)",
                      "title": "TERM_H",
                      "type": "integer",
                      "default": "10"
                    },
                    "FILL": {
                      "markdownDescription": "Command used to prefill the terminal (isolated terminals only).\n\n[https://frederic-zinelli.gitlab.io/pyodide-mkdocs-theme/redactors/terminaux/#signature](https://frederic-zinelli.gitlab.io/pyodide-mkdocs-theme/redactors/terminaux/#signature)",
                      "title": "FILL",
                      "type": "string",
                      "default": "\"\""
                    }
                  },
                  "additionalProperties": false
                },
                "py_btn": {
                  "markdownDescription": "Default values for arguments used in the `py_btn` macro.\n\n[https://frederic-zinelli.gitlab.io/pyodide-mkdocs-theme/redactors/py_btns/#signature](https://frederic-zinelli.gitlab.io/pyodide-mkdocs-theme/redactors/py_btns/#signature)",
                  "title": "py_btn",
                  "type": "object",
                  "properties": {
                    "SANS": {
                      "markdownDescription": "Used to forbid the use of builtins, attribute accesses, packages or keywords in the python code (space or comma separated identifiers).\n\n[https://frederic-zinelli.gitlab.io/pyodide-mkdocs-theme/redactors/IDE-details/#IDE-SANS](https://frederic-zinelli.gitlab.io/pyodide-mkdocs-theme/redactors/IDE-details/#IDE-SANS)",
                      "title": "SANS",
                      "type": "string",
                      "default": "\"\""
                    },
                    "WHITE": {
                      "markdownDescription": "Names of packages to import automatically in the global scope (to avoid troubles with forbidden modules).\n\n[https://frederic-zinelli.gitlab.io/pyodide-mkdocs-theme/redactors/IDE-details/#IDE-WHITE](https://frederic-zinelli.gitlab.io/pyodide-mkdocs-theme/redactors/IDE-details/#IDE-WHITE)",
                      "title": "WHITE",
                      "type": "string",
                      "default": "\"\""
                    },
                    "REC_LIMIT": {
                      "markdownDescription": "Limit the recursion depth (do not use values below 20).\n\n[https://frederic-zinelli.gitlab.io/pyodide-mkdocs-theme/redactors/IDE-details/#IDE-REC_LIMIT](https://frederic-zinelli.gitlab.io/pyodide-mkdocs-theme/redactors/IDE-details/#IDE-REC_LIMIT)",
                      "title": "REC_LIMIT",
                      "type": "integer",
                      "default": "-1"
                    },
                    "ICON": {
                      "markdownDescription": "Image of the button (by default: `play`  / file path / :icon-material: / url).\n\n[https://frederic-zinelli.gitlab.io/pyodide-mkdocs-theme/redactors/py_btns/#signature](https://frederic-zinelli.gitlab.io/pyodide-mkdocs-theme/redactors/py_btns/#signature)",
                      "title": "ICON",
                      "type": "string",
                      "default": "\"\""
                    },
                    "HEIGHT": {
                      "markdownDescription": "Default height for the button\n\n[https://frederic-zinelli.gitlab.io/pyodide-mkdocs-theme/redactors/py_btns/#signature](https://frederic-zinelli.gitlab.io/pyodide-mkdocs-theme/redactors/py_btns/#signature)",
                      "title": "HEIGHT",
                      "type": "integer"
                    },
                    "WIDTH": {
                      "markdownDescription": "Default width for the button\n\n[https://frederic-zinelli.gitlab.io/pyodide-mkdocs-theme/redactors/py_btns/#signature](https://frederic-zinelli.gitlab.io/pyodide-mkdocs-theme/redactors/py_btns/#signature)",
                      "title": "WIDTH",
                      "type": "integer"
                    },
                    "SIZE": {
                      "markdownDescription": "If given, define the height and the width for the button\n\n[https://frederic-zinelli.gitlab.io/pyodide-mkdocs-theme/redactors/py_btns/#signature](https://frederic-zinelli.gitlab.io/pyodide-mkdocs-theme/redactors/py_btns/#signature)",
                      "title": "SIZE",
                      "type": "integer"
                    },
                    "TIP": {
                      "markdownDescription": "Tooltip message\n\n[https://frederic-zinelli.gitlab.io/pyodide-mkdocs-theme/redactors/py_btns/#signature](https://frederic-zinelli.gitlab.io/pyodide-mkdocs-theme/redactors/py_btns/#signature)",
                      "title": "TIP",
                      "type": "string",
                      "default": "\"Ex\u00e9cuter le code\""
                    },
                    "TIP_SHIFT": {
                      "markdownDescription": "Horizontal leftward shifting of the tooltip (%)\n\n[https://frederic-zinelli.gitlab.io/pyodide-mkdocs-theme/redactors/py_btns/#signature](https://frederic-zinelli.gitlab.io/pyodide-mkdocs-theme/redactors/py_btns/#signature)",
                      "title": "TIP_SHIFT",
                      "type": "integer",
                      "default": "50"
                    },
                    "TIP_WIDTH": {
                      "markdownDescription": "Tooltip width (in em units. Use `0` for automatic width)\n\n[https://frederic-zinelli.gitlab.io/pyodide-mkdocs-theme/redactors/py_btns/#signature](https://frederic-zinelli.gitlab.io/pyodide-mkdocs-theme/redactors/py_btns/#signature)",
                      "title": "TIP_WIDTH",
                      "type": "number",
                      "default": "0.0"
                    },
                    "WRAPPER": {
                      "markdownDescription": "Tag type the button will be inserted into\n\n[https://frederic-zinelli.gitlab.io/pyodide-mkdocs-theme/redactors/py_btns/#signature](https://frederic-zinelli.gitlab.io/pyodide-mkdocs-theme/redactors/py_btns/#signature)",
                      "title": "WRAPPER",
                      "type": "string",
                      "default": "\"div\""
                    },
                    "MERMAID": {
                      "markdownDescription": "Mark a page as containing dynamic Mermaid graphs built during executions.\n\n[https://frederic-zinelli.gitlab.io/pyodide-mkdocs-theme/redactors/IDE-details/#IDE-MERMAID](https://frederic-zinelli.gitlab.io/pyodide-mkdocs-theme/redactors/IDE-details/#IDE-MERMAID)",
                      "title": "MERMAID",
                      "type": "boolean",
                      "default": "false"
                    },
                    "AUTO_RUN": {
                      "markdownDescription": "Run the python code on page load or not.\n\n[https://frederic-zinelli.gitlab.io/pyodide-mkdocs-theme/redactors/IDE-details/#IDE-AUTO_RUN](https://frederic-zinelli.gitlab.io/pyodide-mkdocs-theme/redactors/IDE-details/#IDE-AUTO_RUN)",
                      "title": "AUTO_RUN",
                      "type": "boolean",
                      "default": "false"
                    }
                  },
                  "additionalProperties": false
                },
                "run": {
                  "markdownDescription": "Default values for arguments used in the `run` macro.\n\n[https://frederic-zinelli.gitlab.io/pyodide-mkdocs-theme/redactors/run_macro/#signature](https://frederic-zinelli.gitlab.io/pyodide-mkdocs-theme/redactors/run_macro/#signature)",
                  "title": "run",
                  "type": "object",
                  "properties": {
                    "SANS": {
                      "markdownDescription": "Used to forbid the use of builtins, attribute accesses, packages or keywords in the python code (space or comma separated identifiers).\n\n[https://frederic-zinelli.gitlab.io/pyodide-mkdocs-theme/redactors/IDE-details/#IDE-SANS](https://frederic-zinelli.gitlab.io/pyodide-mkdocs-theme/redactors/IDE-details/#IDE-SANS)",
                      "title": "SANS",
                      "type": "string",
                      "default": "\"\""
                    },
                    "WHITE": {
                      "markdownDescription": "Names of packages to import automatically in the global scope (to avoid troubles with forbidden modules).\n\n[https://frederic-zinelli.gitlab.io/pyodide-mkdocs-theme/redactors/IDE-details/#IDE-WHITE](https://frederic-zinelli.gitlab.io/pyodide-mkdocs-theme/redactors/IDE-details/#IDE-WHITE)",
                      "title": "WHITE",
                      "type": "string",
                      "default": "\"\""
                    },
                    "REC_LIMIT": {
                      "markdownDescription": "Limit the recursion depth (do not use values below 20).\n\n[https://frederic-zinelli.gitlab.io/pyodide-mkdocs-theme/redactors/IDE-details/#IDE-REC_LIMIT](https://frederic-zinelli.gitlab.io/pyodide-mkdocs-theme/redactors/IDE-details/#IDE-REC_LIMIT)",
                      "title": "REC_LIMIT",
                      "type": "integer",
                      "default": "-1"
                    },
                    "MERMAID": {
                      "markdownDescription": "Mark a page as containing dynamic Mermaid graphs built during executions.\n\n[https://frederic-zinelli.gitlab.io/pyodide-mkdocs-theme/redactors/IDE-details/#IDE-MERMAID](https://frederic-zinelli.gitlab.io/pyodide-mkdocs-theme/redactors/IDE-details/#IDE-MERMAID)",
                      "title": "MERMAID",
                      "type": "boolean",
                      "default": "false"
                    }
                  },
                  "additionalProperties": false
                },
                "multi_qcm": {
                  "markdownDescription": "Default values for arguments used in the `multi_qcm` macro.\n\n[https://frederic-zinelli.gitlab.io/pyodide-mkdocs-theme/redactors/qcms/#arguments](https://frederic-zinelli.gitlab.io/pyodide-mkdocs-theme/redactors/qcms/#arguments)",
                  "title": "multi_qcm",
                  "type": "object",
                  "properties": {
                    "description": {
                      "markdownDescription": "Introduction text at the beginning of the quiz admonition.\n\n[https://frederic-zinelli.gitlab.io/pyodide-mkdocs-theme/redactors/qcms/#arguments](https://frederic-zinelli.gitlab.io/pyodide-mkdocs-theme/redactors/qcms/#arguments)",
                      "title": "description",
                      "type": "string",
                      "default": "\"\""
                    },
                    "hide": {
                      "markdownDescription": "Indicates whether correct/incorrect answers are visible or not after validation.\n\n[https://frederic-zinelli.gitlab.io/pyodide-mkdocs-theme/redactors/qcms/#arguments](https://frederic-zinelli.gitlab.io/pyodide-mkdocs-theme/redactors/qcms/#arguments)",
                      "title": "hide",
                      "type": "boolean",
                      "default": "false"
                    },
                    "multi": {
                      "markdownDescription": "Disambiguate MCQ and SCQ if not automatically decidable.\n\n[https://frederic-zinelli.gitlab.io/pyodide-mkdocs-theme/redactors/qcms/#arguments](https://frederic-zinelli.gitlab.io/pyodide-mkdocs-theme/redactors/qcms/#arguments)",
                      "title": "multi",
                      "type": "boolean",
                      "default": "false"
                    },
                    "shuffle": {
                      "markdownDescription": "Shuffle questions and their items or not.\n\n[https://frederic-zinelli.gitlab.io/pyodide-mkdocs-theme/redactors/qcms/#arguments](https://frederic-zinelli.gitlab.io/pyodide-mkdocs-theme/redactors/qcms/#arguments)",
                      "title": "shuffle",
                      "type": "boolean",
                      "default": "false"
                    },
                    "shuffle_questions": {
                      "markdownDescription": "Shuffling or not, questions only.\n\n[https://frederic-zinelli.gitlab.io/pyodide-mkdocs-theme/redactors/qcms/#arguments](https://frederic-zinelli.gitlab.io/pyodide-mkdocs-theme/redactors/qcms/#arguments)",
                      "title": "shuffle_questions",
                      "type": "boolean",
                      "default": "false"
                    },
                    "shuffle_items": {
                      "markdownDescription": "Shuffling the items of each question or not.\n\n[https://frederic-zinelli.gitlab.io/pyodide-mkdocs-theme/redactors/qcms/#arguments](https://frederic-zinelli.gitlab.io/pyodide-mkdocs-theme/redactors/qcms/#arguments)",
                      "title": "shuffle_items",
                      "type": "boolean",
                      "default": "false"
                    },
                    "admo_kind": {
                      "markdownDescription": "Type of the admonition wrapping the whole MCQ (`!!!`, ...).\n\n[https://frederic-zinelli.gitlab.io/pyodide-mkdocs-theme/redactors/qcms/#arguments](https://frederic-zinelli.gitlab.io/pyodide-mkdocs-theme/redactors/qcms/#arguments)",
                      "title": "admo_kind",
                      "enum": [
                        "!!!",
                        "???",
                        "???+",
                        null
                      ],
                      "default": "\"!!!\""
                    },
                    "admo_class": {
                      "markdownDescription": "Html class(es) for the admonition wrapping the whole MCQ (default: `tip`).\n\n[https://frederic-zinelli.gitlab.io/pyodide-mkdocs-theme/redactors/qcms/#arguments](https://frederic-zinelli.gitlab.io/pyodide-mkdocs-theme/redactors/qcms/#arguments)",
                      "title": "admo_class",
                      "type": "string",
                      "default": "\"tip\""
                    },
                    "qcm_title": {
                      "markdownDescription": "Override the default title of the MCQ admonition.\n\n[https://frederic-zinelli.gitlab.io/pyodide-mkdocs-theme/redactors/qcms/#arguments](https://frederic-zinelli.gitlab.io/pyodide-mkdocs-theme/redactors/qcms/#arguments)",
                      "title": "qcm_title",
                      "type": "string",
                      "default": "\"Question\""
                    },
                    "tag_list_of_qs": {
                      "markdownDescription": "Enforce the list tag used to build the questions in a MCQ.\n\n[https://frederic-zinelli.gitlab.io/pyodide-mkdocs-theme/redactors/qcms/#arguments](https://frederic-zinelli.gitlab.io/pyodide-mkdocs-theme/redactors/qcms/#arguments)",
                      "title": "tag_list_of_qs",
                      "enum": [
                        "ul",
                        "ol"
                      ]
                    },
                    "DEBUG": {
                      "markdownDescription": "If `True`, the generated markdown of the MCQ will be printed to the console during mkdocs build.\n\n[https://frederic-zinelli.gitlab.io/pyodide-mkdocs-theme/redactors/qcms/#arguments](https://frederic-zinelli.gitlab.io/pyodide-mkdocs-theme/redactors/qcms/#arguments)",
                      "title": "DEBUG",
                      "type": "boolean",
                      "default": "false"
                    }
                  },
                  "additionalProperties": false
                },
                "figure": {
                  "markdownDescription": "Default values for arguments used in the `figure` macro.\n\n[https://frederic-zinelli.gitlab.io/pyodide-mkdocs-theme/redactors/figures/#signature](https://frederic-zinelli.gitlab.io/pyodide-mkdocs-theme/redactors/figures/#signature)",
                  "title": "figure",
                  "type": "object",
                  "properties": {
                    "div_id": {
                      "markdownDescription": "Html id of the `div` tag that will hold the dynamically generated figure (default: `\"figure1\"`).\n\n[https://frederic-zinelli.gitlab.io/pyodide-mkdocs-theme/redactors/figures/#signature](https://frederic-zinelli.gitlab.io/pyodide-mkdocs-theme/redactors/figures/#signature)",
                      "title": "div_id",
                      "type": "string",
                      "default": "\"figure1\""
                    },
                    "div_class": {
                      "markdownDescription": "Html class to add to the `div` tag that will hold dynamically generated figures.\n\n[https://frederic-zinelli.gitlab.io/pyodide-mkdocs-theme/redactors/figures/#signature](https://frederic-zinelli.gitlab.io/pyodide-mkdocs-theme/redactors/figures/#signature)",
                      "title": "div_class",
                      "type": "string",
                      "default": "\"\""
                    },
                    "inner_text": {
                      "markdownDescription": "Text used as placeholder before any figure is inserted.\n\n[https://frederic-zinelli.gitlab.io/pyodide-mkdocs-theme/redactors/figures/#signature](https://frederic-zinelli.gitlab.io/pyodide-mkdocs-theme/redactors/figures/#signature)",
                      "title": "inner_text",
                      "type": "string",
                      "default": "\"Votre trac\u00e9 sera ici\""
                    },
                    "admo_kind": {
                      "markdownDescription": "Type of the admonition wrapping the generated figure (`!!!`, ...).\n\n[https://frederic-zinelli.gitlab.io/pyodide-mkdocs-theme/redactors/figures/#signature](https://frederic-zinelli.gitlab.io/pyodide-mkdocs-theme/redactors/figures/#signature)",
                      "title": "admo_kind",
                      "type": "string",
                      "default": "\"!!!\""
                    },
                    "admo_class": {
                      "markdownDescription": "Html class(es) of the admonition wrapping the generated figure (default: `tip`).\n\n[https://frederic-zinelli.gitlab.io/pyodide-mkdocs-theme/redactors/figures/#signature](https://frederic-zinelli.gitlab.io/pyodide-mkdocs-theme/redactors/figures/#signature)",
                      "title": "admo_class",
                      "type": "string",
                      "default": "\"tip\""
                    },
                    "admo_title": {
                      "markdownDescription": "Admonition title.\n\n[https://frederic-zinelli.gitlab.io/pyodide-mkdocs-theme/redactors/figures/#signature](https://frederic-zinelli.gitlab.io/pyodide-mkdocs-theme/redactors/figures/#signature)",
                      "title": "admo_title",
                      "type": "string",
                      "default": "\"Votre figure\""
                    },
                    "p5_buttons": {
                      "markdownDescription": "Add start, step and stop buttons for p5 animations, on the given side of the canvas.\n\n[https://frederic-zinelli.gitlab.io/pyodide-mkdocs-theme/redactors/figures/#signature](https://frederic-zinelli.gitlab.io/pyodide-mkdocs-theme/redactors/figures/#signature)",
                      "title": "p5_buttons",
                      "enum": [
                        "left",
                        "right",
                        "top",
                        "bottom"
                      ]
                    }
                  },
                  "additionalProperties": false
                }
              },
              "additionalProperties": false
            },
            "build": {
              "markdownDescription": "R\u00e9glages concernant la construction de la documentation ou qui impactent la fa\u00e7on dont le contenu des pages est construit.\n\n[https://frederic-zinelli.gitlab.io/pyodide-mkdocs-theme/custom/config/#pyodide_macros.build](https://frederic-zinelli.gitlab.io/pyodide-mkdocs-theme/custom/config/#pyodide_macros.build)",
              "title": "build",
              "type": "object",
              "properties": {
                "deprecation_level": {
                  "markdownDescription": "Behavior when a deprecated feature is used.\n\n[https://frederic-zinelli.gitlab.io/pyodide-mkdocs-theme/custom/config/#pyodide_macros.build.deprecation_level](https://frederic-zinelli.gitlab.io/pyodide-mkdocs-theme/custom/config/#pyodide_macros.build.deprecation_level)",
                  "title": "deprecation_level",
                  "enum": [
                    "error",
                    "warn"
                  ],
                  "default": "\"error\""
                },
                "encrypted_js_data": {
                  "markdownDescription": "Compress or not configuration data of IDEs, terminals, ...\n\n[https://frederic-zinelli.gitlab.io/pyodide-mkdocs-theme/custom/config/#pyodide_macros.build.encrypted_js_data](https://frederic-zinelli.gitlab.io/pyodide-mkdocs-theme/custom/config/#pyodide_macros.build.encrypted_js_data)",
                  "title": "encrypted_js_data",
                  "type": "boolean",
                  "default": "true"
                },
                "forbid_macros_override": {
                  "markdownDescription": "If `True` registering different macros with the same name will raise a `PyodideMacrosError`.\n\n[https://frederic-zinelli.gitlab.io/pyodide-mkdocs-theme/custom/config/#pyodide_macros.build.forbid_macros_override](https://frederic-zinelli.gitlab.io/pyodide-mkdocs-theme/custom/config/#pyodide_macros.build.forbid_macros_override)",
                  "title": "forbid_macros_override",
                  "type": "boolean",
                  "default": "true"
                },
                "ignore_macros_plugin_diffs": {
                  "markdownDescription": "Deactivate the compatibility check of PyodideMacrosPlugin configuration against the MacrosPlugin one.\n\n[https://frederic-zinelli.gitlab.io/pyodide-mkdocs-theme/custom/config/#pyodide_macros.build.ignore_macros_plugin_diffs](https://frederic-zinelli.gitlab.io/pyodide-mkdocs-theme/custom/config/#pyodide_macros.build.ignore_macros_plugin_diffs)",
                  "title": "ignore_macros_plugin_diffs",
                  "type": "boolean",
                  "default": "false"
                },
                "load_yaml_encoding": {
                  "markdownDescription": "Encoding used when loading yaml files within the original macros plugin.\n\n[https://frederic-zinelli.gitlab.io/pyodide-mkdocs-theme/custom/config/#pyodide_macros.build.load_yaml_encoding](https://frederic-zinelli.gitlab.io/pyodide-mkdocs-theme/custom/config/#pyodide_macros.build.load_yaml_encoding)",
                  "title": "load_yaml_encoding",
                  "type": "string",
                  "default": "\"utf-8\""
                },
                "macros_with_indents": {
                  "markdownDescription": "List of macros inserting multiline contents in the pages (allowing to use `plugin.indent_macro(markdown)` from them).\n\n[https://frederic-zinelli.gitlab.io/pyodide-mkdocs-theme/custom/config/#pyodide_macros.build.macros_with_indents](https://frederic-zinelli.gitlab.io/pyodide-mkdocs-theme/custom/config/#pyodide_macros.build.macros_with_indents)",
                  "title": "macros_with_indents",
                  "type": "array",
                  "items": {
                    "type": "string"
                  },
                  "default": "[]"
                },
                "meta_yaml_allow_extras": {
                  "markdownDescription": "Allow definition of extra variables/options in the `.meta.pmt.yml` files.\n\n[https://frederic-zinelli.gitlab.io/pyodide-mkdocs-theme/custom/config/#pyodide_macros.build.meta_yaml_allow_extras](https://frederic-zinelli.gitlab.io/pyodide-mkdocs-theme/custom/config/#pyodide_macros.build.meta_yaml_allow_extras)",
                  "title": "meta_yaml_allow_extras",
                  "type": "boolean",
                  "default": "false"
                },
                "meta_yaml_encoding": {
                  "markdownDescription": "Encoding to use when loading `.meta.pmt.yml` files.\n\n[https://frederic-zinelli.gitlab.io/pyodide-mkdocs-theme/custom/config/#pyodide_macros.build.meta_yaml_encoding](https://frederic-zinelli.gitlab.io/pyodide-mkdocs-theme/custom/config/#pyodide_macros.build.meta_yaml_encoding)",
                  "title": "meta_yaml_encoding",
                  "type": "string",
                  "default": "\"utf-8\""
                },
                "python_libs": {
                  "markdownDescription": "List of custom python packages to make available at runtime in Pyodide environment.\n\n[https://frederic-zinelli.gitlab.io/pyodide-mkdocs-theme/custom/config/#pyodide_macros.build.python_libs](https://frederic-zinelli.gitlab.io/pyodide-mkdocs-theme/custom/config/#pyodide_macros.build.python_libs)",
                  "title": "python_libs",
                  "type": "array",
                  "items": {
                    "type": "string"
                  },
                  "default": "[\"py_libs\"]"
                },
                "limit_pypi_install_to": {
                  "markdownDescription": "If defined, only the package names in this list are allowed to be automatically installed from PyPI.\n\n[https://frederic-zinelli.gitlab.io/pyodide-mkdocs-theme/custom/config/#pyodide_macros.build.limit_pypi_install_to](https://frederic-zinelli.gitlab.io/pyodide-mkdocs-theme/custom/config/#pyodide_macros.build.limit_pypi_install_to)",
                  "title": "limit_pypi_install_to",
                  "type": "array",
                  "items": {
                    "type": "string"
                  }
                },
                "skip_py_md_paths_names_validation": {
                  "markdownDescription": "Deactivate the sanity check of the directories and files in the `docs_dir`.\n\n[https://frederic-zinelli.gitlab.io/pyodide-mkdocs-theme/custom/config/#pyodide_macros.build.skip_py_md_paths_names_validation](https://frederic-zinelli.gitlab.io/pyodide-mkdocs-theme/custom/config/#pyodide_macros.build.skip_py_md_paths_names_validation)",
                  "title": "skip_py_md_paths_names_validation",
                  "type": "boolean",
                  "default": "false"
                },
                "tab_to_spaces": {
                  "markdownDescription": "Number os space characters used to replace tabulations on the left of multiline macro calls.\n\n[https://frederic-zinelli.gitlab.io/pyodide-mkdocs-theme/custom/config/#pyodide_macros.build.tab_to_spaces](https://frederic-zinelli.gitlab.io/pyodide-mkdocs-theme/custom/config/#pyodide_macros.build.tab_to_spaces)",
                  "title": "tab_to_spaces",
                  "type": "integer",
                  "default": "-1"
                }
              },
              "additionalProperties": false
            },
            "ides": {
              "markdownDescription": "R\u00e9glages sp\u00e9cifiques aux IDEs (comportements impactant l'utilisateur et les ex\u00e9cutions).\n\n[https://frederic-zinelli.gitlab.io/pyodide-mkdocs-theme/custom/config/#pyodide_macros.ides](https://frederic-zinelli.gitlab.io/pyodide-mkdocs-theme/custom/config/#pyodide_macros.ides)",
              "title": "ides",
              "type": "object",
              "properties": {
                "deactivate_stdout_for_secrets": {
                  "markdownDescription": "Define if the stdout will be shown in terminals to the user or not, during the secret tests.\n\n[https://frederic-zinelli.gitlab.io/pyodide-mkdocs-theme/custom/config/#pyodide_macros.ides.deactivate_stdout_for_secrets](https://frederic-zinelli.gitlab.io/pyodide-mkdocs-theme/custom/config/#pyodide_macros.ides.deactivate_stdout_for_secrets)",
                  "title": "deactivate_stdout_for_secrets",
                  "type": "boolean",
                  "default": "true"
                },
                "decrease_attempts_on_user_code_failure": {
                  "markdownDescription": "Define from which step an error will consume an attempt, during a validation.\n\n[https://frederic-zinelli.gitlab.io/pyodide-mkdocs-theme/custom/config/#pyodide_macros.ides.decrease_attempts_on_user_code_failure](https://frederic-zinelli.gitlab.io/pyodide-mkdocs-theme/custom/config/#pyodide_macros.ides.decrease_attempts_on_user_code_failure)",
                  "title": "decrease_attempts_on_user_code_failure",
                  "enum": [
                    "editor",
                    "public",
                    "secrets"
                  ],
                  "default": "\"editor\""
                },
                "encrypt_alpha_mode": {
                  "markdownDescription": "Define in what order the characters of the content are pushed in the LZW compression table (by default: `direct`, `shuffle`, `sort`).\n\n[https://frederic-zinelli.gitlab.io/pyodide-mkdocs-theme/custom/config/#pyodide_macros.ides.encrypt_alpha_mode](https://frederic-zinelli.gitlab.io/pyodide-mkdocs-theme/custom/config/#pyodide_macros.ides.encrypt_alpha_mode)",
                  "title": "encrypt_alpha_mode",
                  "enum": [
                    "direct",
                    "shuffle",
                    "sort"
                  ],
                  "default": "\"direct\""
                },
                "encrypt_corrections_and_rems": {
                  "markdownDescription": "Compress or not the solutions and remarks below IDEs (deactivate only for debugging purpose).\n\n[https://frederic-zinelli.gitlab.io/pyodide-mkdocs-theme/custom/config/#pyodide_macros.ides.encrypt_corrections_and_rems](https://frederic-zinelli.gitlab.io/pyodide-mkdocs-theme/custom/config/#pyodide_macros.ides.encrypt_corrections_and_rems)",
                  "title": "encrypt_corrections_and_rems",
                  "type": "boolean",
                  "default": "true"
                },
                "export_zip_prefix": {
                  "markdownDescription": "Prefix for the zip archive containing the editor content of all the exportable IDEs in the page.\n\n[https://frederic-zinelli.gitlab.io/pyodide-mkdocs-theme/custom/config/#pyodide_macros.ides.export_zip_prefix](https://frederic-zinelli.gitlab.io/pyodide-mkdocs-theme/custom/config/#pyodide_macros.ides.export_zip_prefix)",
                  "title": "export_zip_prefix",
                  "type": "string",
                  "default": "\"\""
                },
                "export_zip_with_names": {
                  "markdownDescription": "Choose if the user has to give a name when building a zip archive of the IDEs contents.\n\n[https://frederic-zinelli.gitlab.io/pyodide-mkdocs-theme/custom/config/#pyodide_macros.ides.export_zip_with_names](https://frederic-zinelli.gitlab.io/pyodide-mkdocs-theme/custom/config/#pyodide_macros.ides.export_zip_with_names)",
                  "title": "export_zip_with_names",
                  "type": "boolean",
                  "default": "false"
                },
                "forbid_corr_and_REMs_with_infinite_attempts": {
                  "markdownDescription": "By default, this situation is considered invalid and `BuildError` will be raised. If this is the desired behavior, set this option to false.\n\n[https://frederic-zinelli.gitlab.io/pyodide-mkdocs-theme/custom/config/#pyodide_macros.ides.forbid_corr_and_REMs_with_infinite_attempts](https://frederic-zinelli.gitlab.io/pyodide-mkdocs-theme/custom/config/#pyodide_macros.ides.forbid_corr_and_REMs_with_infinite_attempts)",
                  "title": "forbid_corr_and_REMs_with_infinite_attempts",
                  "type": "boolean",
                  "default": "true"
                },
                "forbid_hidden_corr_and_REMs_without_secrets": {
                  "markdownDescription": "By default, this situation is considered invalid and `BuildError` will be raised. If this is the desired behavior, set this option to false.\n\n[https://frederic-zinelli.gitlab.io/pyodide-mkdocs-theme/custom/config/#pyodide_macros.ides.forbid_hidden_corr_and_REMs_without_secrets](https://frederic-zinelli.gitlab.io/pyodide-mkdocs-theme/custom/config/#pyodide_macros.ides.forbid_hidden_corr_and_REMs_without_secrets)",
                  "title": "forbid_hidden_corr_and_REMs_without_secrets",
                  "type": "boolean",
                  "default": "true"
                },
                "forbid_secrets_without_corr_or_REMs": {
                  "markdownDescription": "By default, this situation is considered invalid and `BuildError` will be raised. If this is the desired behavior, set this option to false.\n\n[https://frederic-zinelli.gitlab.io/pyodide-mkdocs-theme/custom/config/#pyodide_macros.ides.forbid_secrets_without_corr_or_REMs](https://frederic-zinelli.gitlab.io/pyodide-mkdocs-theme/custom/config/#pyodide_macros.ides.forbid_secrets_without_corr_or_REMs)",
                  "title": "forbid_secrets_without_corr_or_REMs",
                  "type": "boolean",
                  "default": "true"
                },
                "show_only_assertion_errors_for_secrets": {
                  "markdownDescription": "If True, the stack trace of all error messages will be suppressed and only assertion messages will be left unchanged, when an error is raised during the secret tests.\n\n[https://frederic-zinelli.gitlab.io/pyodide-mkdocs-theme/custom/config/#pyodide_macros.ides.show_only_assertion_errors_for_secrets](https://frederic-zinelli.gitlab.io/pyodide-mkdocs-theme/custom/config/#pyodide_macros.ides.show_only_assertion_errors_for_secrets)",
                  "title": "show_only_assertion_errors_for_secrets",
                  "type": "boolean",
                  "default": "false"
                },
                "editor_font_family": {
                  "markdownDescription": "Font family used in IDEs' editor.\n\n[https://frederic-zinelli.gitlab.io/pyodide-mkdocs-theme/custom/config/#pyodide_macros.ides.editor_font_family](https://frederic-zinelli.gitlab.io/pyodide-mkdocs-theme/custom/config/#pyodide_macros.ides.editor_font_family)",
                  "title": "editor_font_family",
                  "type": "string",
                  "default": "\"monospace\""
                },
                "editor_font_size": {
                  "markdownDescription": "Font size used in IDEs' editor.\n\n[https://frederic-zinelli.gitlab.io/pyodide-mkdocs-theme/custom/config/#pyodide_macros.ides.editor_font_size](https://frederic-zinelli.gitlab.io/pyodide-mkdocs-theme/custom/config/#pyodide_macros.ides.editor_font_size)",
                  "title": "editor_font_size",
                  "type": "integer",
                  "default": "15"
                },
                "ace_style_dark": {
                  "markdownDescription": "Dark theme for IDEs' editor.\n\n[https://frederic-zinelli.gitlab.io/pyodide-mkdocs-theme/custom/config/#pyodide_macros.ides.ace_style_dark](https://frederic-zinelli.gitlab.io/pyodide-mkdocs-theme/custom/config/#pyodide_macros.ides.ace_style_dark)",
                  "title": "ace_style_dark",
                  "type": "string",
                  "default": "\"tomorrow_night_bright\""
                },
                "ace_style_light": {
                  "markdownDescription": "Light theme for IDEs' editor.\n\n[https://frederic-zinelli.gitlab.io/pyodide-mkdocs-theme/custom/config/#pyodide_macros.ides.ace_style_light](https://frederic-zinelli.gitlab.io/pyodide-mkdocs-theme/custom/config/#pyodide_macros.ides.ace_style_light)",
                  "title": "ace_style_light",
                  "type": "string",
                  "default": "\"crimson_editor\""
                }
              },
              "additionalProperties": false
            },
            "qcms": {
              "markdownDescription": "R\u00e9glages sp\u00e9cifiques aux QCMs.\n\n[https://frederic-zinelli.gitlab.io/pyodide-mkdocs-theme/custom/config/#pyodide_macros.qcms](https://frederic-zinelli.gitlab.io/pyodide-mkdocs-theme/custom/config/#pyodide_macros.qcms)",
              "title": "qcms",
              "type": "object",
              "properties": {
                "forbid_no_correct_answers_with_multi": {
                  "markdownDescription": "Allow to disambiguate MCQ and SCQ when needed.\n\n[https://frederic-zinelli.gitlab.io/pyodide-mkdocs-theme/custom/config/#pyodide_macros.qcms.forbid_no_correct_answers_with_multi](https://frederic-zinelli.gitlab.io/pyodide-mkdocs-theme/custom/config/#pyodide_macros.qcms.forbid_no_correct_answers_with_multi)",
                  "title": "forbid_no_correct_answers_with_multi",
                  "type": "boolean",
                  "default": "true"
                }
              },
              "additionalProperties": false
            },
            "terms": {
              "markdownDescription": "R\u00e9glages sp\u00e9cifiques aux terminaux.\n\n[https://frederic-zinelli.gitlab.io/pyodide-mkdocs-theme/custom/config/#pyodide_macros.terms](https://frederic-zinelli.gitlab.io/pyodide-mkdocs-theme/custom/config/#pyodide_macros.terms)",
              "title": "terms",
              "type": "object",
              "properties": {
                "cut_feedback": {
                  "markdownDescription": "If True, the content printed in the terminal will be truncated if it's too long, to avoid performances troubles.\n\n[https://frederic-zinelli.gitlab.io/pyodide-mkdocs-theme/custom/config/#pyodide_macros.terms.cut_feedback](https://frederic-zinelli.gitlab.io/pyodide-mkdocs-theme/custom/config/#pyodide_macros.terms.cut_feedback)",
                  "title": "cut_feedback",
                  "type": "boolean",
                  "default": "true"
                },
                "stdout_cut_off": {
                  "markdownDescription": "Maximum number of lines kept in terminals.\n\n[https://frederic-zinelli.gitlab.io/pyodide-mkdocs-theme/custom/config/#pyodide_macros.terms.stdout_cut_off](https://frederic-zinelli.gitlab.io/pyodide-mkdocs-theme/custom/config/#pyodide_macros.terms.stdout_cut_off)",
                  "title": "stdout_cut_off",
                  "type": "integer",
                  "default": "200"
                }
              },
              "additionalProperties": false
            },
            "testing": {
              "markdownDescription": "Permet de param\u00e9trer la page pour tester automatiquement tous les IDEs de la documentation.\n\n[https://frederic-zinelli.gitlab.io/pyodide-mkdocs-theme/custom/config/#pyodide_macros.testing](https://frederic-zinelli.gitlab.io/pyodide-mkdocs-theme/custom/config/#pyodide_macros.testing)",
              "title": "testing",
              "type": "object",
              "properties": {
                "page": {
                  "markdownDescription": "Name of the IDEs testing page. Generated only if given.\n\n[https://frederic-zinelli.gitlab.io/pyodide-mkdocs-theme/custom/config/#pyodide_macros.testing.page](https://frederic-zinelli.gitlab.io/pyodide-mkdocs-theme/custom/config/#pyodide_macros.testing.page)",
                  "title": "page",
                  "type": "string",
                  "default": "\"test_ides\""
                },
                "include": {
                  "markdownDescription": "Define when and how to generate the page to tests all the IDEs of the documentation.\n\n[https://frederic-zinelli.gitlab.io/pyodide-mkdocs-theme/custom/config/#pyodide_macros.testing.include](https://frederic-zinelli.gitlab.io/pyodide-mkdocs-theme/custom/config/#pyodide_macros.testing.include)",
                  "title": "include",
                  "enum": [
                    "null",
                    "serve",
                    "site"
                  ],
                  "default": "\"null\""
                },
                "load_buttons": {
                  "markdownDescription": "Name of the IDEs testing page. Generated only if given.\n\n[https://frederic-zinelli.gitlab.io/pyodide-mkdocs-theme/custom/config/#pyodide_macros.testing.load_buttons](https://frederic-zinelli.gitlab.io/pyodide-mkdocs-theme/custom/config/#pyodide_macros.testing.load_buttons)",
                  "title": "load_buttons",
                  "type": "boolean"
                },
                "empty_section_fallback": {
                  "markdownDescription": "Fallback behavior when the `section` normally tested is empty.\n\n[https://frederic-zinelli.gitlab.io/pyodide-mkdocs-theme/custom/config/#pyodide_macros.testing.empty_section_fallback](https://frederic-zinelli.gitlab.io/pyodide-mkdocs-theme/custom/config/#pyodide_macros.testing.empty_section_fallback)",
                  "title": "empty_section_fallback",
                  "enum": [
                    "",
                    "skip",
                    "fail",
                    "code",
                    "human",
                    "no_clear"
                  ],
                  "default": "\"skip\""
                }
              },
              "additionalProperties": false
            },
            "_dev_mode": {
              "markdownDescription": "Run the plugin in development mode (...don't use that).\n\n[https://frederic-zinelli.gitlab.io/pyodide-mkdocs-theme/custom/config/#pyodide_macros._dev_mode](https://frederic-zinelli.gitlab.io/pyodide-mkdocs-theme/custom/config/#pyodide_macros._dev_mode)",
              "title": "_dev_mode",
              "type": "boolean",
              "default": "false"
            },
            "force_render_paths": {
              "markdownDescription": "Directories and files to force to render (Pathspec syntax).\n\n[https://mkdocs-macros-plugin.readthedocs.io/en/latest/#configuration-of-the-plugin](https://mkdocs-macros-plugin.readthedocs.io/en/latest/#configuration-of-the-plugin)",
              "title": "force_render_paths",
              "type": "string",
              "default": "\"\""
            },
            "include_dir": {
              "markdownDescription": "Directory for including external files.\n\n[https://mkdocs-macros-plugin.readthedocs.io/en/latest/#configuration-of-the-plugin](https://mkdocs-macros-plugin.readthedocs.io/en/latest/#configuration-of-the-plugin)",
              "title": "include_dir",
              "type": "string",
              "default": "\"\""
            },
            "include_yaml": {
              "markdownDescription": "To include external data files.\n\n[https://mkdocs-macros-plugin.readthedocs.io/en/latest/#configuration-of-the-plugin](https://mkdocs-macros-plugin.readthedocs.io/en/latest/#configuration-of-the-plugin)",
              "title": "include_yaml",
              "type": "array",
              "items": {
                "type": "string"
              },
              "default": "[]"
            },
            "j2_block_start_string": {
              "markdownDescription": "Non-standard Jinja2 marker for start of block (default: `{%`).\n\n[https://mkdocs-macros-plugin.readthedocs.io/en/latest/#configuration-of-the-plugin](https://mkdocs-macros-plugin.readthedocs.io/en/latest/#configuration-of-the-plugin)",
              "title": "j2_block_start_string",
              "type": "string",
              "default": "\"\""
            },
            "j2_block_end_string": {
              "markdownDescription": "Non-standard Jinja2 marker for end of block (default: `%}`).\n\n[https://mkdocs-macros-plugin.readthedocs.io/en/latest/#configuration-of-the-plugin](https://mkdocs-macros-plugin.readthedocs.io/en/latest/#configuration-of-the-plugin)",
              "title": "j2_block_end_string",
              "type": "string",
              "default": "\"\""
            },
            "j2_comment_start_string": {
              "markdownDescription": "Non-standard Jinja2 marker for start of comments (default: `{#`).\n\n[https://mkdocs-macros-plugin.readthedocs.io/en/latest/#configuration-of-the-plugin](https://mkdocs-macros-plugin.readthedocs.io/en/latest/#configuration-of-the-plugin)",
              "title": "j2_comment_start_string",
              "type": "string",
              "default": "\"\""
            },
            "j2_comment_end_string": {
              "markdownDescription": "Non-standard Jinja2 marker for end of comments (default: `#}`).\n\n[https://mkdocs-macros-plugin.readthedocs.io/en/latest/#configuration-of-the-plugin](https://mkdocs-macros-plugin.readthedocs.io/en/latest/#configuration-of-the-plugin)",
              "title": "j2_comment_end_string",
              "type": "string",
              "default": "\"\""
            },
            "j2_variable_start_string": {
              "markdownDescription": "Non-standard Jinja2 marker for start of variables (default: `{{`).\n\n[https://mkdocs-macros-plugin.readthedocs.io/en/latest/#configuration-of-the-plugin](https://mkdocs-macros-plugin.readthedocs.io/en/latest/#configuration-of-the-plugin)",
              "title": "j2_variable_start_string",
              "type": "string",
              "default": "\"\""
            },
            "j2_variable_end_string": {
              "markdownDescription": "Non-standard Jinja2 marker for end of variables (default: `}}`).\n\n[https://mkdocs-macros-plugin.readthedocs.io/en/latest/#configuration-of-the-plugin](https://mkdocs-macros-plugin.readthedocs.io/en/latest/#configuration-of-the-plugin)",
              "title": "j2_variable_end_string",
              "type": "string",
              "default": "\"\""
            },
            "module_name": {
              "markdownDescription": "Name of the Python module containing custom macros, filters and variables (file without extension or directory).\n\n[https://mkdocs-macros-plugin.readthedocs.io/en/latest/#configuration-of-the-plugin](https://mkdocs-macros-plugin.readthedocs.io/en/latest/#configuration-of-the-plugin)",
              "title": "module_name",
              "type": "string",
              "default": "\"main\""
            },
            "modules": {
              "markdownDescription": "List of pluglets to be added to mkdocs-macros (preinstalled Python modules that can be listed by pip list).\n\n[https://mkdocs-macros-plugin.readthedocs.io/en/latest/#configuration-of-the-plugin](https://mkdocs-macros-plugin.readthedocs.io/en/latest/#configuration-of-the-plugin)",
              "title": "modules",
              "type": "array",
              "items": {
                "type": "string"
              },
              "default": "[]"
            },
            "on_error_fail": {
              "markdownDescription": "Make the building process fail in case of an error during macro rendering.\n\n[https://mkdocs-macros-plugin.readthedocs.io/en/latest/#configuration-of-the-plugin](https://mkdocs-macros-plugin.readthedocs.io/en/latest/#configuration-of-the-plugin)",
              "title": "on_error_fail",
              "type": "boolean",
              "default": "false"
            },
            "on_undefined": {
              "markdownDescription": "Behavior of the macros renderer in case of undefined variables in a page.\n\n[https://mkdocs-macros-plugin.readthedocs.io/en/latest/#configuration-of-the-plugin](https://mkdocs-macros-plugin.readthedocs.io/en/latest/#configuration-of-the-plugin)",
              "title": "on_undefined",
              "type": "string",
              "default": "\"keep\""
            },
            "render_by_default": {
              "markdownDescription": "Execute all the macros in the pages or not.\n\n[https://mkdocs-macros-plugin.readthedocs.io/en/latest/#configuration-of-the-plugin](https://mkdocs-macros-plugin.readthedocs.io/en/latest/#configuration-of-the-plugin)",
              "title": "render_by_default",
              "type": "boolean",
              "default": "true"
            },
            "verbose": {
              "markdownDescription": "Print debug (more detailed) statements in the console.\n\n[https://mkdocs-macros-plugin.readthedocs.io/en/latest/#configuration-of-the-plugin](https://mkdocs-macros-plugin.readthedocs.io/en/latest/#configuration-of-the-plugin)",
              "title": "verbose",
              "type": "boolean",
              "default": "false"
            }
          },
          "additionalProperties": false
        }
      },
      "additionalProperties": false
    }
  ]
}