<svg class="{placeholder}" width="100%" height="100%" viewBox="-292 -137 363 333" xmlns="http://www.w3.org/2000/svg">
<filter id="hovered"><feGaussianBlur in="SourceGraphic" stdDeviation="4" /></filter>
<g fill="var(--md-typeset-color)" font-size="12">
  <text class="svg-0" x="-104.0" y="-120.0" text-anchor="end" dominant-baseline="middle" >Projet</text>
  <text class="svg-21" x="-148.0" y="30.0" text-anchor="end" dominant-baseline="middle" >chap1</text>
  <text class="svg-36" x="-90.0" y="47.0" text-anchor="middle" dominant-baseline="middle" fill="#0b8a0b" >.md</text>
  <text class="svg-3" x="-35.0" y="-45.0" text-anchor="start" dominant-baseline="middle" fill="#0b8a0b" >mkdocs.yml</text>
  <text class="svg-206" x="-180.0" y="121.0" text-anchor="middle" dominant-baseline="middle" fill="#ffdc00" >.md</text>
  <text class="svg-55" x="17.0" y="121.0" text-anchor="middle" dominant-baseline="middle" fill="#2972ff" >.meta.pmt.yml</text>
  <text class="svg-78" x="-239.0" y="121.0" text-anchor="middle" dominant-baseline="middle" fill="#ee5050" >.meta.pmt.yml</text>
  <text class="svg-477" x="-45.0" y="121.0" text-anchor="middle" dominant-baseline="middle" fill="#3ae1e1" >.md</text>
  <text class="svg-171" x="-131.0" y="180.0" text-anchor="middle" dominant-baseline="middle" fill="#ffdc00" >.md</text>
  <text class="svg-388" x="-56.0" y="180.0" text-anchor="middle" dominant-baseline="middle" fill="#3ae1e1" >.md</text>
  <text class="svg-10" x="-102.0" y="-45.0" text-anchor="end" dominant-baseline="middle" >docs</text>
  <g stroke="var(--md-typeset-color)">
  <circle class="svg-10" cx="-90.0" cy="-45.0" r="5.5" fill="#0b8a0b"></circle>
  <circle class="svg-0" cx="-90.0" cy="-120.0" r="5.5" fill="white"></circle>
  <circle class="svg-21" cx="-135.0" cy="30.0" r="5.5" fill="#0b8a0b"></circle>
  <circle class="svg-36" cx="-90.0" cy="30.0" r="5.5" fill="#0b8a0b"></circle>
  <circle class="svg-3" cx="-45.0" cy="-45.0" r="5.5" fill="#0b8a0b"></circle>
  <circle class="svg-244" cx="-45.0" cy="30.0" r="5.5" fill="#0b8a0b"></circle>
  <circle class="svg-206" cx="-180.0" cy="105.0" r="5.5" fill="#ffdc00"></circle>
  <circle class="svg-55" cx="0.0" cy="105.0" r="5.5" fill="#2972ff"></circle>
  <circle class="svg-105" cx="-135.0" cy="105.0" r="5.5" fill="#ffdc00"></circle>
  <circle class="svg-78" cx="-225.0" cy="105.0" r="5.5" fill="#ee5050"></circle>
  <circle class="svg-295" cx="-90.0" cy="105.0" r="5.5" fill="#3ae1e1"></circle>
  <circle class="svg-477" cx="-45.0" cy="105.0" r="5.5" fill="#3ae1e1"></circle>
  <circle class="svg-171" cx="-150.0" cy="180.0" r="5.5" fill="#ffdc00"></circle>
  <circle class="svg-388" cx="-75.0" cy="180.0" r="5.5" fill="#3ae1e1"></circle>
  <path class="svg-14" d="M -90.0 -114.0 L -90.0 -52.0"></path>
  <path class="svg-25" d="M -93.1 -39.9 L -131.4 24.0"></path>
  <path class="svg-40" d="M -90.0 -39.0 L -90.0 23.0"></path>
  <path class="svg-248" d="M -86.9 -39.9 L -48.6 24.0"></path>
  <path class="svg-7" d="M -86.9 -114.9 L -48.6 -51.0"></path>
  <path class="svg-210" d="M -138.1 35.1 L -176.4 99.0"></path>
  <path class="svg-109" d="M -135.0 36.0 L -135.0 98.0"></path>
  <path class="svg-82" d="M -139.6 33.8 L -219.6 100.5"></path>
  <path class="svg-439" d="M -41.9 35.1 L -3.6 99.0"></path>
  <path class="svg-299" d="M -48.1 35.1 L -86.4 99.0"></path>
  <path class="svg-481" d="M -45.0 36.0 L -45.0 98.0"></path>
  <path class="svg-175" d="M -136.2 110.9 L -148.6 173.1"></path>
  <path class="svg-392" d="M -88.8 110.9 L -76.4 173.1"></path>
  </g><g stroke="none">
  <path class="svg-14" d="M -86.0 -59.0 L -94.0 -59.0 L -90.0 -51.0 z"></path>
  <path class="svg-25" d="M -124.4 20.1 L -131.2 15.9 L -131.9 24.9 z"></path>
  <path class="svg-40" d="M -86.0 16.0 L -94.0 16.0 L -90.0 24.0 z"></path>
  <path class="svg-248" d="M -48.8 15.9 L -55.6 20.1 L -48.1 24.9 z"></path>
  <path class="svg-7" d="M -48.8 -59.1 L -55.6 -54.9 L -48.1 -50.1 z"></path>
  <path class="svg-210" d="M -169.4 95.1 L -176.2 90.9 L -176.9 99.9 z"></path>
  <path class="svg-109" d="M -131.0 91.0 L -139.0 91.0 L -135.0 99.0 z"></path>
  <path class="svg-82" d="M -211.7 99.1 L -216.8 93.0 L -220.4 101.2 z"></path>
  <path class="svg-439" d="M -3.8 90.9 L -10.6 95.1 L -3.1 99.9 z"></path>
  <path class="svg-299" d="M -79.4 95.1 L -86.2 90.9 L -86.9 99.9 z"></path>
  <path class="svg-481" d="M -41.0 91.0 L -49.0 91.0 L -45.0 99.0 z"></path>
  <path class="svg-175" d="M -143.3 167.1 L -151.2 165.5 L -148.8 174.1 z"></path>
  <path class="svg-392" d="M -73.8 165.5 L -81.7 167.1 L -76.2 174.1 z"></path>
  </g>
</g></svg>